<?xml version="1.0" encoding="utf-8"?>
<!-- Generator: Adobe Illustrator 23.0.2, SVG Export Plug-In . SVG Version: 6.00 Build 0)  -->
<svg version="1.1" id="Livello_1" xmlns="http://www.w3.org/2000/svg" xmlns:xlink="http://www.w3.org/1999/xlink" x="0px" y="0px"
	 viewBox="0 0 24 24" style="enable-background:new 0 0 24 24;" xml:space="preserve">
<style type="text/css">
	.st0{fill:none;}
	.st1{fill:#FFFFFF;}
	.st2{fill:#444444;}
</style>
<path class="st0" d="M0,0h24v24H0V0z"/>
<circle class="st1" cx="12" cy="12" r="11.7"/>
<circle class="st1" cx="12" cy="12" r="11.7"/>
<path class="st2" d="M12,0.5c1.5,0,3.1,0.3,4.5,0.9c1.4,0.6,2.6,1.4,3.6,2.5c1.1,1.1,1.9,2.3,2.5,3.6c0.6,1.4,0.9,2.9,0.9,4.5
	s-0.3,3.1-0.9,4.5c-0.6,1.4-1.4,2.6-2.5,3.6c-1.1,1.1-2.3,1.9-3.6,2.5c-1.4,0.6-2.9,0.9-4.5,0.9s-3.1-0.3-4.5-0.9
	c-1.4-0.6-2.6-1.4-3.6-2.5c-1.1-1.1-1.9-2.3-2.5-3.6c-0.6-1.4-0.9-2.9-0.9-4.5s0.3-3.1,0.9-4.5C2,6.2,2.8,4.9,3.9,3.9
	C4.9,2.8,6.2,2,7.5,1.4C8.9,0.8,10.5,0.5,12,0.5 M12,0C5.4,0,0,5.4,0,12s5.4,12,12,12s12-5.4,12-12S18.6,0,12,0L12,0z"/>
<g>
	<g>
		<path class="st2" d="M8.1,17.8c-1.1,0-2.2,0-3.2,0c-0.6,0-1.1-0.5-1.1-1.1c0-2.4,0-4.8,0-7.2c0-0.6,0.5-1.2,1.2-1.2
			c0.1,0,0.2,0,0.4,0c0-0.2,0-0.4,0-0.5H7L7,8h1.4c0,0,0.2-0.8,0.3-1.2C8.9,6.4,9.1,6,9.5,5.7c0.3-0.2,0.5-0.3,0.9-0.3
			c1,0,2.1,0,3.1,0c0.7,0,1.1,0.3,1.5,0.8c0.3,0.5,0.5,1.1,0.5,1.7c0,0.1,0,0.1,0,0.1h0.3c1,0,1.9,0,2.9,0c1.1,0,1.7,1.1,1.2,2.1
			c-0.8,1.6-0.8,3.5-0.1,5.2c0.6,1.4,0.1,2.4-1,2.4c-0.9,0-1.9,0-2.8,0h-0.2c3.1-2.7,2.4-6.9,0.2-8.8c-2.4-2.1-5.9-2.1-8.1,0.1
			C5.6,11.2,5.3,15.2,8.1,17.8z"/>
	</g>
	<g>
		<path class="st2" d="M12,18.8C12,18.8,12,18.8,12,18.8c-1.6,0-3-0.6-4.1-1.7c-1-1.1-1.6-2.4-1.6-3.9c0-3.1,2.5-5.6,5.6-5.6
			c0,0,0,0,0,0l0,0c3.1,0,5.6,2.5,5.6,5.6c0,1.5-0.6,2.9-1.6,3.9C14.9,18.2,13.5,18.8,12,18.8z M12,7.9c-3,0-5.4,2.4-5.4,5.4
			c0,1.4,0.5,2.8,1.5,3.8c1,1,2.4,1.6,3.9,1.6c0,0,0,0,0,0c1.4,0,2.7-0.6,3.7-1.6c1-1,1.6-2.4,1.6-3.8C17.3,10.3,14.9,7.9,12,7.9
			C12,7.9,12,7.9,12,7.9z M12,18.2c0,0-0.1,0-0.1,0c0,0,0,0,0,0C9.2,18.2,7,16,7,13.2c0-1.3,0.5-2.5,1.4-3.5c0.9-1,2.2-1.5,3.5-1.5
			c0,0,0,0,0,0c1.3,0,2.6,0.5,3.5,1.5c0.9,0.9,1.4,2.2,1.4,3.5c0,1.4-0.5,2.6-1.5,3.6C14.5,17.7,13.3,18.2,12,18.2z M11.9,17.9
			L11.9,17.9c1.2,0,2.4-0.5,3.3-1.3c0.9-0.9,1.4-2.1,1.4-3.4c0-1.2-0.5-2.4-1.4-3.3c-0.9-0.9-2.1-1.4-3.3-1.4c0,0,0,0,0,0
			c-1.3,0-2.4,0.5-3.3,1.4c-0.9,0.9-1.4,2.1-1.4,3.3C7.2,15.8,9.4,17.9,11.9,17.9C11.9,17.9,11.9,17.9,11.9,17.9L11.9,17.9z"/>
	</g>
	<g>
		<path class="st2" d="M11.9,18c-2.6,0-4.8-2.1-4.8-4.8c0-2.6,2.2-4.8,4.8-4.8c2.7,0,4.8,2.1,4.8,4.8C16.8,16.1,14.3,18.1,11.9,18z"
			/>
	</g>
	<g>
		<path class="st1" d="M15.7,13.4c-0.4-0.8-0.9-1.6-1.6-2.1c-0.4-0.2-0.8-0.4-1.2-0.6c-0.2-0.1-0.4-0.1-0.5-0.2
			c-0.1-0.1-0.3-0.3-0.2-0.4c0.1-0.2,0.3-0.3,0.4-0.3c0.2,0,0.5,0.1,0.7,0.2c1.3,0.8,2.2,1.8,2.4,3.4C15.7,13.3,15.7,13.4,15.7,13.4
			"/>
	</g>
</g>
</svg>
